{
    "count": 1302,
    "next": "https://pokeapi.co/api/v2/pokemon/?offset=151&limit=151",
    "previous": null,
    "results": [
      {
        "name": "bulbasaur",
        "url": "https://pokeapi.co/api/v2/pokemon/1/"
      },
      {
        "name": "mew",
        "url": "https://pokeapi.co/api/v2/pokemon/151/"
      }
    ]
  }