{
    "count": 1302,
    "next": "https://pokeapi.co/api/v2/pokemon/?offset=1025&limit=120",
    "previous": "https://pokeapi.co/api/v2/pokemon/?offset=785&limit=120",
    "results": [
      {
        "name": "sprigatito",
        "url": "https://pokeapi.co/api/v2/pokemon/906/"
      },
      {
        "name": "pecharunt",
        "url": "https://pokeapi.co/api/v2/pokemon/1025/"
      }
    ]
  }