{
    "count": 1302,
    "next": "https://pokeapi.co/api/v2/pokemon?offset=1025&limit=277",
    "previous": null,
    "results": [
      {
        "name": "bulbasaur",
        "url": "https://pokeapi.co/api/v2/pokemon/1/"
      },
      {
        "name": "mew",
        "url": "https://pokeapi.co/api/v2/pokemon/151/"
      },
      {
        "name": "chikorita",
        "url": "https://pokeapi.co/api/v2/pokemon/152/"
      },
      {
        "name": "celebi",
        "url": "https://pokeapi.co/api/v2/pokemon/251/"
      },
      {
        "name": "treecko",
        "url": "https://pokeapi.co/api/v2/pokemon/252/"
      },
      {
        "name": "deoxys-normal",
        "url": "https://pokeapi.co/api/v2/pokemon/386/"
      },
      {
        "name": "turtwig",
        "url": "https://pokeapi.co/api/v2/pokemon/387/"
      },
      {
        "name": "arceus",
        "url": "https://pokeapi.co/api/v2/pokemon/493/"
      },
      {
        "name": "victini",
        "url": "https://pokeapi.co/api/v2/pokemon/494/"
      },
      {
        "name": "genesect",
        "url": "https://pokeapi.co/api/v2/pokemon/649/"
      },
      {
        "name": "chespin",
        "url": "https://pokeapi.co/api/v2/pokemon/650/"
      },
      {
        "name": "volcanion",
        "url": "https://pokeapi.co/api/v2/pokemon/721/"
      },
      {
        "name": "rowlet",
        "url": "https://pokeapi.co/api/v2/pokemon/722/"
      },
      {
        "name": "melmetal",
        "url": "https://pokeapi.co/api/v2/pokemon/809/"
      },
      {
        "name": "grookey",
        "url": "https://pokeapi.co/api/v2/pokemon/810/"
      },
      {
        "name": "enamorus-incarnate",
        "url": "https://pokeapi.co/api/v2/pokemon/905/"
      },
      {
        "name": "sprigatito",
        "url": "https://pokeapi.co/api/v2/pokemon/906/"
      },
      {
        "name": "pecharunt",
        "url": "https://pokeapi.co/api/v2/pokemon/1025/"
      }
    ]
  }